{
    "name":"SF Portal CB",
    "version":"1.0.0",
    "author":"You",
    "location":"",
    "slug":"sf-portal-cb",
    "createPackageDirectory":false,
    "type":"mvc",
    "keywords":"",
    "homepage":"",
    "documentation":"",
    "repository":{
        "type":"",
        "url":""
    },
    "bugs":"",
    "shortDescription":"",
    "contributors":[],
    "ignore":[],
    "devDependencies":{
        "testbox":"^4.2.1+400",
        "commandbox-dotenv":"*",
        "commandbox-cfconfig":"*",
        "commandbox-cfformat":"*"
    },
    "installPaths":{
        "coldbox":"coldbox/",
        "testbox":"testbox/",
        "aws-cfml":"modules/awscfml/",
        "cbSwagger":"modules/cbSwagger/"
    },
    "dependencies":{
        "coldbox":"^6.0.0",
        "aws-cfml":"^1.22.0",
        "cbSwagger":"^2.6.0+147"
    },
    "scripts":{},
    "testbox":{
        "runner":"/tests/runner.cfm"
    }
}
